<?xml version="1.0" encoding="utf-8"?>
<!-- Generator: Adobe Illustrator 24.0.2, SVG Export Plug-In . SVG Version: 6.00 Build 0)  -->
<svg version="1.1" id="Layer_1" xmlns="http://www.w3.org/2000/svg" xmlns:xlink="http://www.w3.org/1999/xlink" x="0px" y="0px"
	 viewBox="0 0 477.9 334.8" style="enable-background:new 0 0 477.9 334.8;" xml:space="preserve">
<style type="text/css">
	.st0{fill:#2F2E41;}
	.st1{fill:#F5F7FA;}
	.st2{fill:#243B53;}
	.st3{fill:#8EEDC7;}
	.st4{fill:none;stroke:#243B53;stroke-width:2;stroke-miterlimit:10;}
	.st5{opacity:0.1;enable-background:new    ;}
	.st6{fill:#9F616A;}
	.st7{fill:#9FB3C8;}
	.st8{fill:#FFFFFF;}
</style>
<g transform="translate(0 0)">
	<path class="st0" d="M400.3,294.3c0,0-8.9-4.7-10.8-0.9c0,0,1.4,11.3-4.2,12.7s-8,11.3,0,12.2s13.1-1.9,16-1.9s0-9.9,0-9.9
		L400.3,294.3z"/>
	<path class="st0" d="M357.8,216.5c0,0-9.7-2.7-10.8,1.4c0,0,3.8,10.7-1.5,13.3s-5.4,12.7,2.6,11.9s12.5-4.6,15.2-5.2
		s-2.1-9.6-2.1-9.6L357.8,216.5z"/>
	<ellipse class="st1" cx="179.6" cy="171.9" rx="154.9" ry="154.6"/>
	<path class="st2" d="M204.3,195.6c-34.2,52.5-24.8,119.3-24.8,119.3s64.9-18.3,99.1-70.8s24.8-119.3,24.8-119.3
		S238.6,143.1,204.3,195.6z"/>
	<path class="st3" d="M174.1,306.7c0,0-0.8-0.1-2.2-0.3c-1.1-0.2-2.7-0.5-4.6-0.8c-17.1-3.4-62.8-15.5-93.8-50.8
		c-38.8-44.3-39.9-108.4-39.9-108.4s56.8,7.1,95.7,46.7c1.7,1.7,3.3,3.5,4.9,5.3c33.8,38.5,39,92.1,39.8,105.3
		C174.1,305.7,174.1,306.7,174.1,306.7z"/>
	<path class="st4" d="M135,199.6c38.7,44,39.1,107.2,39.1,107.2s-62.3-8.2-101-52.3S34,147.3,34,147.3S96.3,155.6,135,199.6z"/>
	<path class="st5" d="M179.5,311c-0.9,1.1-1.7,2-2.4,2.8c-1.5,1.7-2.3,2.5-2.3,2.5s-1-1.3-2.7-3.6c-9.2-12.9-39-58.7-36.7-111.7
		c0.1-2.8,0.3-5.5,0.6-8.2c1.7,1.9,3.4,3.8,5.1,5.8C176,240.5,179.2,297,179.5,311z"/>
	<path class="st3" d="M230.2,204.8c-2.7,62.6-49.2,111.4-49.2,111.4s-42.1-52.7-39.4-115.3s49.2-111.4,49.2-111.4
		S232.9,142.2,230.2,204.8z"/>
	<line class="st4" x1="181" y1="314.5" x2="191.2" y2="92.1"/>
	<ellipse class="st2" cx="238.9" cy="320" rx="238.9" ry="14.8"/>
	<line class="st4" x1="39.7" y1="314.6" x2="39.7" y2="254.8"/>
	<circle class="st2" cx="39.7" cy="254.9" r="8.5"/>
	<path class="st2" d="M39.7,291.6c0,0-1.2-26-26-23"/>
	<line class="st4" x1="245.1" y1="217.6" x2="245.1" y2="50.2"/>
	<circle class="st2" cx="245.1" cy="50.2" r="11.6"/>
	<path class="st2" d="M245.1,97.4c0,0-1.7-35.7-35.7-31.6"/>
	<path class="st2" d="M384.3,124.4l-10.1,19c0,0-73,14-63.7,35.7s19.8,53.6,25.2,52.8s35.3-17.9,36.5-22.9s-26.8-28.7-26.8-28.7
		l46.2-8.9c0,0,6.6,31.1-1.9,52.4s-13.6,79.2-7.8,80s20.6,5.4,27.2,1.2s9.7-97.8,9.7-97.8s14-61.3,5.4-68.3S384.3,124.4,384.3,124.4
		z"/>
	<path class="st6" d="M405.8,57.9c0,0,0.4,14.4-2.3,15.5s15.1,8.2,15.1,8.2l3.1-5.4c0,0-3.5-19.4-2.7-21S405.8,57.9,405.8,57.9z"/>
	<circle class="st0" cx="412.3" cy="37.5" r="23.8"/>
	<circle class="st0" cx="414" cy="15.2" r="9.8"/>
	<path class="st0" d="M400.8,9.8c0-5,3.8-9.3,8.8-9.8c-0.3,0-0.7-0.1-1-0.1c-5.4,0-9.8,4.4-9.8,9.8s4.4,9.8,9.8,9.8
		c0.3,0,0.7,0,1-0.1C404.6,19.1,400.8,14.9,400.8,9.8z"/>
	<circle class="st6" cx="411.7" cy="49.1" r="16.3"/>
	<path class="st7" d="M423.1,70.1c0,0-14,4.3-21,0s-23.7,8.2-26.4,13.6s10.1,10.9,10.1,10.9s-3.7,10.5-2.9,15.7
		c0.8,5.4-0.6,16.5-0.6,16.5s34.3,22.6,41.9,12.4c1.2-1.6,10.9-38,10.9-38l13.6-13.6c0,0-8.5-12.4-13.6-13.6
		C431.1,72.9,427,71.6,423.1,70.1z"/>
	<path class="st6" d="M329.7,149.7c0,0-26.4,13.6-21,17.5s27.6-15.1,27.6-15.1L329.7,149.7z"/>
	<path class="st6" d="M433,140c0,0-11.7-7.9-13.6-4s12.9,12.9,16,9.4S433,140,433,140z"/>
	<path class="st7" d="M441.7,83.2l7,4.3c0,0,23.7,32.6,15.5,40s-29.1,22.1-29.1,22.1s-7-10.1-4.7-10.5s21-15.9,21-15.9l-16.3-30.3
		L441.7,83.2z"/>
	<path class="st7" d="M380.6,81.7l-5,1.9l-13.2,23.7l-34.9,42.3c0,0,4.7,7.4,8.5,5.8s33-34.2,33-34.2l19-29.5L380.6,81.7z"/>
	<ellipse class="st0" cx="412.3" cy="29.7" rx="16.4" ry="9.8"/>
	<rect x="302.2" y="239.6" class="st3" width="76.5" height="76.5"/>
	<path class="st8" d="M368.5,274.7c0,10.8-5.1,17.7-13.1,17.7c-4.1,0-7.2-2.2-7.8-5.5H347c-1.4,3.4-4.4,5.2-8.4,5.2
		c-7.1,0-11.9-5.7-11.9-14.2c0-8.2,4.8-13.9,11.8-13.9c3.4-0.1,6.5,1.7,8,4.8h0.6v-4.1h5.8v18.9c0,2.4,1.3,3.8,3.6,3.8
		c4.1,0,6.6-4.9,6.6-12.5c0-12.2-9.1-20.3-22.6-20.3c-13.3,0-22.8,9.7-22.8,23.5c0,14.1,9.4,23,24,23c2.7,0,5.3-0.2,8-0.7
		c1.2-0.3,2.5,0.5,2.7,1.8c0.3,1.2-0.5,2.5-1.8,2.7l0,0c-3,0.7-6.1,1-9.2,1c-17.8,0-29.2-11-29.2-28.1c0-16.7,11.6-28.1,28.6-28.1
		C357.2,249.8,368.5,259.9,368.5,274.7z M333,278c0,5.4,2.5,8.7,6.7,8.7c4.4,0,7.1-3.4,7.1-8.7s-2.7-8.6-7-8.6
		C335.5,269.4,333,272.6,333,278L333,278z"/>
</g>
</svg>
