{
  "project_info": {
    "project_number": "374354602411",
    "firebase_url": "https://square-171508.firebaseio.com",
    "project_id": "square-171508",
    "storage_bucket": "square-171508.appspot.com"
  },
  "client": [
    {
      "client_info": {
        "mobilesdk_app_id": "1:374354602411:android:61710737759c614f",
        "android_client_info": {
          "package_name": "co.townsquare.square"
        }
      },
      "oauth_client": [
        {
          "client_id": "374354602411-5lad1pvhogfjd8k56tqdg88c2kgenurt.apps.googleusercontent.com",
          "client_type": 3
        }
      ],
      "api_key": [
        {
          "current_key": "AIzaSyDSDtFdwO3P_sr1nGQXJFQsCcoCufSD_-E"
        }
      ],
      "services": {
        "analytics_service": {
          "status": 1
        },
        "appinvite_service": {
          "status": 1,
          "other_platform_oauth_client": []
        },
        "ads_service": {
          "status": 2
        }
      }
    }
  ],
  "configuration_version": "1"
}