<svg xmlns="http://www.w3.org/2000/svg" width="171" height="35" viewBox="0 0 171 35">
    <g fill="none" fill-rule="evenodd">
        <path fill="#EB0D00" d="M0 3h171l-19.485 16.297L171 35H0z" opacity=".636"/>
        <path fill="#454545" d="M0 0h171l-19.485 16.297L171 32H0z"/>
    </g>
</svg>
