<svg width="426.667" height="426.667" xmlns="http://www.w3.org/2000/svg">

 <g>
  <title>background</title>
  <rect fill="none" id="canvas_background" height="402" width="582" y="-1" x="-1"/>
 </g>
 <g>
  <title>Layer 1</title>
  <g id="svg_1">
   <g id="svg_2">
    <path fill="#eb0d00" id="svg_3" d="m352,256c-23.983,0 -45.13,11.569 -58.801,29.201l-144.438,-55.553c0.146,-1.897 0.572,-3.714 0.572,-5.647c0,-3.589 -0.568,-7.025 -1.06,-10.479l148.009,-68.32c13.693,15.487 33.473,25.466 55.717,25.466c41.167,0 74.667,-33.5 74.667,-74.667c0,-41.167 -33.5,-74.667 -74.667,-74.667s-74.666,33.499 -74.666,74.666c0,3.589 0.568,7.025 1.06,10.479l-148.009,68.32c-13.693,-15.487 -33.473,-25.466 -55.717,-25.466c-41.167,0 -74.667,33.5 -74.667,74.667c0,41.167 33.5,74.667 74.667,74.667c23.983,0 45.13,-11.569 58.801,-29.201l144.438,55.553c-0.146,1.897 -0.572,3.714 -0.572,5.647c0,41.167 33.5,74.667 74.667,74.667s74.667,-33.5 74.667,-74.667c-0.001,-41.166 -33.501,-74.666 -74.668,-74.666z"/>
   </g>
  </g>
  <g id="svg_4"/>
  <g id="svg_5"/>
  <g id="svg_6"/>
  <g id="svg_7"/>
  <g id="svg_8"/>
  <g id="svg_9"/>
  <g id="svg_10"/>
  <g id="svg_11"/>
  <g id="svg_12"/>
  <g id="svg_13"/>
  <g id="svg_14"/>
  <g id="svg_15"/>
  <g id="svg_16"/>
  <g id="svg_17"/>
  <g id="svg_18"/>
 </g>
</svg>