{
    "ImageIO.framework": 1,
    "CoreLocation.framework": 3,
    "AVFoundation.framework": 1,
    "AddressBook.framework": 1,
    "AddressBookUI.framework": 1,
    "CoreMotion.framework": 1,
    "AudioToolbox.framework": 2,
    "SystemConfiguration.framework": 1,
    "CoreTelephony.framework": 1,
    "Social.framework": 1,
    "MessageUI.framework": 1,
    "PushKit.framework": 1
}